player,centrality
Ish Smith,0.5782983970406905
Shaun Livingston,0.5761670761670762
Anthony Tolliver,0.5733496332518337
Lou Amundson,0.5712545676004872
Earl Barron,0.5691747572815534
Ramon Sessions,0.5677966101694916
Steve Novak,0.5664251207729468
D.J. Augustin,0.5664251207729468
Brandan Wright,0.5650602409638554
Matt Barnes,0.5650602409638554
Jarrett Jack,0.5637019230769231
Nate Robinson,0.5637019230769231
Raymond Felton,0.5637019230769231
Drew Gooden,0.5630252100840336
Jeff Green,0.5630252100840336
Chris Johnson,0.5616766467065868
Trevor Ariza,0.5610047846889952
Marco Belinelli,0.5610047846889952
Andre Miller,0.5610047846889952
Richard Jefferson,0.5610047846889952
Dante Cunningham,0.5603345280764636
Dominic McGuire,0.5596658711217184
Ryan Hollins,0.5596658711217184
Luc Mbah a Moute,0.5589988081048868
Courtney Lee,0.5583333333333333
Caron Butler,0.5583333333333333
Garrett Temple,0.5576694411414982
Lance Stephenson,0.5576694411414982
Aaron Brooks,0.5576694411414982
Jose Calderon,0.5576694411414982
Anthony Morrow,0.5576694411414982
Corey Brewer,0.5570071258907363
Mike James,0.5570071258907363
Beno Udrih,0.5570071258907363
Jamal Crawford,0.5563463819691578
Rudy Gay,0.5563463819691578
Kris Humphries,0.5563463819691578
Dahntay Jones,0.5556872037914692
Marcus Thornton,0.5556872037914692
Alonzo Gee,0.5556872037914692
Cartier Martin,0.5550295857988166
Josh McRoberts,0.5550295857988166
Reggie Evans,0.5550295857988166
Gerald Green,0.5543735224586288
Toney Douglas,0.5543735224586288
Monta Ellis,0.5537190082644629
Jameer Nelson,0.5530660377358491
Wayne Ellington,0.5530660377358491
Tyson Chandler,0.5530660377358491
Spencer Hawes,0.552414605418139
Jerryd Bayless,0.5517647058823529
Kyle Korver,0.5517647058823529
Ronny Turiaf,0.5504694835680751
Vince Carter,0.5504694835680751
Joe Johnson,0.5504694835680751
Marreese Speights,0.5504694835680751
Jordan Crawford,0.5498241500586166
Leandro Barbosa,0.5498241500586166
Jared Dudley,0.5498241500586166
Sebastian Telfair,0.5498241500586166
Shannon Brown,0.5498241500586166
David Lee,0.5498241500586166
J.J. Redick,0.5498241500586166
Steve Blake,0.5498241500586166
Mike Dunleavy,0.5491803278688525
DeMarre Carroll,0.5491803278688525
Josh Smith,0.5491803278688525
Stephen Jackson,0.5491803278688525
Chris Kaman,0.5491803278688525
Rajon Rondo,0.5491803278688525
Jason Terry,0.5491803278688525
Cole Aldrich,0.5485380116959064
John Salmons,0.5485380116959064
Zaza Pachulia,0.5485380116959064
Ersan Ilyasova,0.5485380116959064
Darren Collison,0.5478971962616822
Jannero Pargo,0.5478971962616822
Greivis Vasquez,0.5478971962616822
Al Harrington,0.5478971962616822
Gary Neal,0.5478971962616822
Luke Ridnour,0.5478971962616822
Mike Miller,0.5478971962616822
Mo Williams,0.5478971962616822
Brandon Bass,0.5478971962616822
Nick Young,0.5478971962616822
Andrew Bogut,0.5478971962616822
Jodie Meeks,0.5478971962616822
Carl Landry,0.5472578763127188
Nazr Mohammed,0.5472578763127188
Chris Andersen,0.5472578763127188
JaVale McGee,0.5472578763127188
Lou Williams,0.5472578763127188
Kendrick Perkins,0.5472578763127188
Dwight Howard,0.5466200466200466
Austin Daye,0.5466200466200466
Arron Afflalo,0.5466200466200466
Devin Harris,0.5466200466200466
Paul Pierce,0.5466200466200466
Michael Beasley,0.5466200466200466
Kevin Martin,0.5459837019790454
Jeremy Lin,0.5459837019790454
Jordan Hill,0.5459837019790454
J.R. Smith,0.5459837019790454
Derrick Williams,0.5453488372093023
Shelvin Mack,0.5453488372093023
Hakim Warrick,0.5453488372093023
Kyle Lowry,0.5453488372093023
Omri Casspi,0.5453488372093023
Boris Diaw,0.5453488372093023
Darko Milicic,0.5453488372093023
Jared Cunningham,0.5453488372093023
Randy Foye,0.5453488372093023
Gerald Wallace,0.5453488372093023
Brandon Jennings,0.5453488372093023
James Johnson,0.5447154471544715
Chris Paul,0.5447154471544715
Jason Smith,0.5447154471544715
Donald Sloan,0.5447154471544715
A.J. Price,0.5440835266821346
J.J. Barea,0.5440835266821346
Hedo Turkoglu,0.5440835266821346
Luol Deng,0.5440835266821346
Goran Dragic,0.5434530706836617
Thaddeus Young,0.5434530706836617
Jon Leuer,0.5434530706836617
Shawn Marion,0.5434530706836617
Nene Hilario,0.5428240740740741
Luis Scola,0.5428240740740741
Tracy McGrady,0.5428240740740741
Kosta Koufos,0.5428240740740741
Amar'e Stoudemire,0.5428240740740741
Roger Mason,0.5428240740740741
Kwame Brown,0.5428240740740741
DeAndre Liggins,0.5428240740740741
Patrick Patterson,0.5421965317919075
Dorell Wright,0.5421965317919075
Reggie Williams,0.5421965317919075
George Hill,0.5415704387990762
C.J. Watson,0.5415704387990762
Zach Randolph,0.5415704387990762
Ronnie Price,0.5415704387990762
Dirk Nowitzki,0.5415704387990762
Lance Thomas,0.5415704387990762
J.J. Hickson,0.5415704387990762
Tayshaun Prince,0.5415704387990762
Shavlik Randolph,0.5409457900807382
C.J. Miles,0.5409457900807382
Chandler Parsons,0.5409457900807382
Chuck Hayes,0.5409457900807382
Tyreke Evans,0.5409457900807382
Quincy Acy,0.5409457900807382
Willie Green,0.5409457900807382
Vladimir Radmanovic,0.5409457900807382
Ryan Anderson,0.5409457900807382
Jason Richardson,0.5403225806451613
Robin Lopez,0.5403225806451613
Ronnie Brewer,0.5403225806451613
Chris Wilcox,0.5403225806451613
Deron Williams,0.5403225806451613
Eric Gordon,0.5403225806451613
Iman Shumpert,0.5403225806451613
Kurt Thomas,0.5403225806451613
Samuel Dalembert,0.5403225806451613
Chase Budinger,0.5397008055235903
Avery Bradley,0.5397008055235903
Joel Anthony,0.5397008055235903
Keyon Dooling,0.5397008055235903
Al Jefferson,0.539080459770115
Alan Anderson,0.539080459770115
Sasha Pavlovic,0.539080459770115
James Jones,0.539080459770115
Ty Lawson,0.539080459770115
Tony Allen,0.539080459770115
Jason Collins,0.5384615384615384
Kevin Love,0.5384615384615384
Troy Murphy,0.5384615384615384
DeMarcus Cousins,0.5384615384615384
Marcin Gortat,0.5384615384615384
Pau Gasol,0.5384615384615384
Eric Maynor,0.5384615384615384
Royal Ivey,0.5384615384615384
Ekpe Udoh,0.5384615384615384
Ian Mahinmi,0.5384615384615384
David West,0.5378440366972477
Emeka Okafor,0.5378440366972477
Solomon Jones,0.5378440366972477
Kirk Hinrich,0.5378440366972477
Carmelo Anthony,0.5378440366972477
Chris Douglas-Roberts,0.5378440366972477
Blake Griffin,0.5378440366972477
DeAndre Jordan,0.5378440366972477
Brook Lopez,0.5378440366972477
Darius Morris,0.5378440366972477
Wesley Johnson,0.5378440366972477
Marcus Morris,0.5372279495990836
Earl Clark,0.5372279495990836
Omer Asik,0.5372279495990836
Jermaine O'Neal,0.5372279495990836
Elton Brand,0.5372279495990836
Austin Rivers,0.5372279495990836
Keith Bogans,0.5372279495990836
Derek Fisher,0.5372279495990836
Isaiah Thomas,0.5366132723112128
Metta World Peace,0.5366132723112128
Amir Johnson,0.5366132723112128
Thabo Sefolosha,0.5366132723112128
Evan Turner,0.5366132723112128
Kevin Garnett,0.5366132723112128
LeBron James,0.5366132723112128
Mickael Pietrus,0.536
Jrue Holiday,0.536
Thomas Robinson,0.5353881278538812
Timofey Mozgov,0.5353881278538812
Jerry Stackhouse,0.5353881278538812
Jeff Adrien,0.5353881278538812
Luke Babbitt,0.5353881278538812
Dwyane Wade,0.5353881278538812
Earl Watson,0.5347776510832383
Jeff Ayres,0.5347776510832383
Markieff Morris,0.5347776510832383
Travis Outlaw,0.5347776510832383
Quincy Pondexter,0.5347776510832383
Kenyon Martin,0.5347776510832383
Jae Crowder,0.5347776510832383
Wesley Matthews,0.5347776510832383
O.J. Mayo,0.5347776510832383
Mike Conley,0.5347776510832383
Miles Plumlee,0.5341685649202733
Aaron Gray,0.5341685649202733
John Lucas III,0.5341685649202733
Damien Wilkins,0.5341685649202733
DeShawn Stevenson,0.5341685649202733
Al-Farouq Aminu,0.5341685649202733
Malcolm Thomas,0.5341685649202733
LaMarcus Aldridge,0.5341685649202733
Martell Webster,0.5335608646188851
James Harden,0.5335608646188851
Shane Battier,0.5335608646188851
Nicolas Batum,0.5335608646188851
Anderson Varejao,0.5335608646188851
Antawn Jamison,0.5335608646188851
Marcus Camby,0.5335608646188851
Stephen Curry,0.5335608646188851
Corey Maggette,0.5335608646188851
Juwan Howard,0.5335608646188851
Danny Granger,0.5329545454545455
E'Twaun Moore,0.5329545454545455
Jared Jeffries,0.5329545454545455
Ed Davis,0.5329545454545455
Marvin Williams,0.5329545454545455
Quentin Richardson,0.5329545454545455
Brendan Haywood,0.5329545454545455
Byron Mullens,0.5329545454545455
Brandon Rush,0.5323496027241771
Eric Bledsoe,0.5323496027241771
Jason Thompson,0.5323496027241771
D.J. White,0.5323496027241771
Kevin Durant,0.5323496027241771
Serge Ibaka,0.5323496027241771
Roy Hibbert,0.5317460317460317
Tobias Harris,0.5317460317460317
Josh Howard,0.5317460317460317
Orlando Johnson,0.5317460317460317
Andre Iguodala,0.5317460317460317
Joel Przybilla,0.5317460317460317
Trevor Booker,0.5311438278595696
Jordan Hamilton,0.5311438278595696
Glen Davis,0.5311438278595696
Xavier Henry,0.5311438278595696
Matt Carroll,0.5311438278595696
Darrell Arthur,0.5311438278595696
Nick Collison,0.5311438278595696
Marc Gasol,0.5311438278595696
Hasheem Thabeet,0.5311438278595696
Joakim Noah,0.5305429864253394
Greg Monroe,0.5305429864253394
Jonas Jerebko,0.5305429864253394
Kent Bazemore,0.5305429864253394
Rashard Lewis,0.5305429864253394
Carlos Delfino,0.5305429864253394
Terrence Williams,0.5305429864253394
Brandon Knight,0.5299435028248588
Kevin Seraphin,0.5299435028248588
Andris Biedrins,0.5299435028248588
Danilo Gallinari,0.5299435028248588
Tyler Zeller,0.5299435028248588
P.J. Tucker,0.5293453724604966
Greg Smith,0.5293453724604966
Bismack Biyombo,0.5293453724604966
Charlie Villanueva,0.5293453724604966
Dion Waiters,0.5293453724604966
Anthony Randolph,0.5293453724604966
Mario Chalmers,0.5293453724604966
Reggie Jackson,0.5293453724604966
Tyler Hansbrough,0.5287485907553551
Jeff Teague,0.5287485907553551
Jimmer Fredette,0.5287485907553551
Josh Childress,0.5287485907553551
Lavoy Allen,0.5287485907553551
Andrea Bargnani,0.5287485907553551
DeJuan Blair,0.5287485907553551
Tristan Thompson,0.5287485907553551
Tony Parker,0.5287485907553551
Ricky Rubio,0.5281531531531531
Tyrus Thomas,0.5281531531531531
Al Horford,0.5281531531531531
DeSagana Diop,0.5281531531531531
Daequan Cook,0.5281531531531531
Steve Nash,0.5275590551181102
Taj Gibson,0.5275590551181102
Chris Duhon,0.5275590551181102
Chauncey Billups,0.5275590551181102
Johan Petro,0.5275590551181102
John Jenkins,0.5275590551181102
Norris Cole,0.5275590551181102
Larry Sanders,0.5275590551181102
Russell Westbrook,0.5275590551181102
John Wall,0.5269662921348315
Justin Holiday,0.5269662921348315
Gustavo Ayon,0.5269662921348315
Wilson Chandler,0.5269662921348315
Kyrie Irving,0.5269662921348315
Enes Kanter,0.5269662921348315
Gerald Henderson,0.5269662921348315
James Anderson,0.5269662921348315
Rodney Stuckey,0.5263748597081931
Terrence Jones,0.5263748597081931
Eddy Curry,0.5263748597081931
Paul Millsap,0.5263748597081931
Udonis Haslem,0.5263748597081931
Paul George,0.5257847533632287
DeMar DeRozan,0.5257847533632287
Patty Mills,0.5257847533632287
Donatas Motiejunas,0.5251959686450168
Ben Gordon,0.5251959686450168
Carlos Boozer,0.5251959686450168
Dwayne Jones,0.5246085011185683
Chris Bosh,0.5246085011185683
Danny Green,0.5246085011185683
Marquis Daniels,0.5246085011185683
Jarvis Varnado,0.5246085011185683
Terrence Ross,0.524022346368715
Henry Sims,0.524022346368715
MarShon Brooks,0.524022346368715
Manu Ginobili,0.524022346368715
Ray Allen,0.524022346368715
Grant Hill,0.5234375
Jeremy Lamb,0.5234375
Greg Stiemsma,0.5234375
Alexey Shved,0.5228539576365663
Francisco Garcia,0.5228539576365663
Jeremy Tyler,0.5228539576365663
Brian Roberts,0.5228539576365663
Mirza Teletovic,0.5228539576365663
Kyle O'Quinn,0.522271714922049
Anthony Davis,0.522271714922049
Jared Sullinger,0.522271714922049
Will Bynum,0.522271714922049
Kyle Singler,0.522271714922049
John Henson,0.522271714922049
Andrei Kirilenko,0.5216907675194661
Klay Thompson,0.5216907675194661
Bradley Beal,0.5211111111111111
Cory Joseph,0.5211111111111111
Pablo Prigioni,0.5211111111111111
Kobe Bryant,0.5211111111111111
Nikola Vucevic,0.5205327413984462
Mike Scott,0.5205327413984462
Andray Blatche,0.5205327413984462
Tony Wroten,0.5205327413984462
Chris Quinn,0.5205327413984462
Tim Duncan,0.5205327413984462
Hamed Haddadi,0.5205327413984462
Khris Middleton,0.5199556541019955
Patrick Beverley,0.5193798449612403
Jason Maxiell,0.5193798449612403
Rasheed Wallace,0.5193798449612403
Matt Bonner,0.5193798449612403
Chris Wright,0.5193798449612403
Jimmy Butler,0.5188053097345132
Justin Dentmon,0.518232044198895
Derrick Favors,0.518232044198895
Jonas Valanciunas,0.5176600441501104
Tiago Splitter,0.5176600441501104
DaJuan Summers,0.5176600441501104
Harrison Barnes,0.5176600441501104
Evan Fournier,0.5176600441501104
Landry Fields,0.5170893054024256
Kemba Walker,0.5170893054024256
Sam Young,0.5170893054024256
Jeremy Evans,0.5165198237885462
Quincy Miller,0.5165198237885462
Nikola Pekovic,0.5159515951595159
Lazar Hayward,0.5159515951595159
Kendall Marshall,0.5159515951595159
Kenneth Faried,0.5153846153846153
Marquis Teague,0.5153846153846153
Andre Drummond,0.5153846153846153
Michael Kidd-Gilchrist,0.5148188803512623
Bernard James,0.5148188803512623
Luke Walton,0.5148188803512623
Will Barton,0.5148188803512623
Jason Kidd,0.5148188803512623
Dexter Pittman,0.5142543859649122
Aron Baynes,0.5136911281489595
Chris Copeland,0.5136911281489595
Richard Hamilton,0.5136911281489595
Julyan Stone,0.513129102844639
Jamaal Tinsley,0.513129102844639
Brandon Roy,0.512568306010929
Kawhi Leonard,0.512568306010929
Lamar Odom,0.5120087336244541
Darius Miller,0.5114503816793893
Malcolm Lee,0.5114503816793893
Draymond Green,0.5114503816793893
Jan Vesely,0.5108932461873639
Alec Burks,0.5108932461873639
Charles Jenkins,0.5108932461873639
Andrew Nicholson,0.5103373231773667
Maalik Wayns,0.5097826086956522
Rodrigue Beaubois,0.5097826086956522
Gordon Hayward,0.509229098805646
Damion James,0.5086767895878525
Tornike Shengelia,0.5081256771397616
Linas Kleiza,0.5070270270270271
Jeremy Pargo,0.505933117583603
Andrew Goudelock,0.5053879310344828
Perry Jones,0.5053879310344828
Dominique Jones,0.5048439181916039
Daniel Orton,0.5048439181916039
Terrel Harris,0.5043010752688172
Daniel Gibson,0.5032188841201717
Robert Sacre,0.5026795284030011
Will Conroy,0.5021413276231264
Josh Harrellson,0.5021413276231264
Nando De Colo,0.5010683760683761
Damian Lillard,0.5010683760683761
Meyers Leonard,0.5010683760683761
Chris Singleton,0.5005336179295624
Maurice Harkless,0.4994675186368477
Ivan Johnson,0.49840595111583424
Kris Joseph,0.4962962962962963
Doron Lamb,0.4952481520591341
Scott Machado,0.4931650893796004
Jeffery Taylor,0.4916142557651992
Mickael Gelabale,0.48956158663883087
James White,0.48854166666666665
Diante Garrett,0.48701973001038423
Joel Freeland,0.48651452282157676
Victor Claver,0.48651452282157676
Samardo Samuels,0.48350515463917526
Darius Johnson-Odom,0.48300720906282185
Devin Ebanks,0.48300720906282185
Arnett Moultrie,0.4825102880658436
Viacheslav Kravtsov,0.4815195071868583
Festus Ezeli,0.48102564102564105
Nolan Smith,0.4805327868852459
Josh Selby,0.4785714285714286
Josh Akognon,0.4775967413441955
Tyshawn Taylor,0.47711088504577825
Cory Higgins,0.47469635627530365
Fab Melo,0.4675972083748754
Kevin Jones,0.4625246548323471
Tim Ohlbrecht,0.4589041095890411
Tyler Honeycutt,0.458455522971652
DeQuan Jones,0.4575609756097561
Ben Hansbrough,0.45622568093385213
Luke Zeller,0.44880382775119615
Kim English,0.4375
Kevin Murphy,0.42100538599640935
